{"response":{"status":"ok","userTier":"developer","total":27040,"startIndex":1,"pageSize":10,"currentPage":1,"pages":2704,"orderBy":"relevance","results":[{"id":"us-news/2020/sep/30/presidential-debates-format-overhauled-trump-biden","type":"article","sectionId":"us-news","sectionName":"US news","webPublicationDate":"2020-09-30T18:22:56Z","webTitle":"Presidential debates format to be overhauled after calamity in Cleveland","webUrl":"https://www.theguardian.com/us-news/2020/sep/30/presidential-debates-format-overhauled-trump-biden","apiUrl":"https://content.guardianapis.com/us-news/2020/sep/30/presidential-debates-format-overhauled-trump-biden","isHosted":false,"pillarId":"pillar/news","pillarName":"News"},{"id":"politics/2020/jul/26/lindsay-hoyle-commons-may-never-return-to-packed-chamber-debates-says-speaker-coronavirus","type":"article","sectionId":"politics","sectionName":"Politics","webPublicationDate":"2020-07-26T21:00:34Z","webTitle":"Commons may never return to packed chamber debates, says Speaker","webUrl":"https://www.theguardian.com/politics/2020/jul/26/lindsay-hoyle-commons-may-never-return-to-packed-chamber-debates-says-speaker-coronavirus","apiUrl":"https://content.guardianapis.com/politics/2020/jul/26/lindsay-hoyle-commons-may-never-return-to-packed-chamber-debates-says-speaker-coronavirus","isHosted":false,"pillarId":"pillar/news","pillarName":"News"},{"id":"us-news/live/2020/oct/01/donald-trump-white-supremacy-joe-biden-kamala-harris-coronavirus-covid-19-live","type":"liveblog","sectionId":"us-news","sectionName":"US news","webPublicationDate":"2020-10-02T00:07:31Z","webTitle":"Trump signals he won't agree to rules changes for debates – as it happened","webUrl":"https://www.theguardian.com/us-news/live/2020/oct/01/donald-trump-white-supremacy-joe-biden-kamala-harris-coronavirus-covid-19-live","apiUrl":"https://content.guardianapis.com/us-news/live/2020/oct/01/donald-trump-white-supremacy-joe-biden-kamala-harris-coronavirus-covid-19-live","isHosted":false,"pillarId":"pillar/news","pillarName":"News"},{"id":"world/2020/may/04/slow-moving-commons-debates-the-key-issues-of-march","type":"article","sectionId":"world","sectionName":"World news","webPublicationDate":"2020-05-04T19:54:07Z","webTitle":"Slow-moving Commons debates the key issues of March","webUrl":"https://www.theguardian.com/world/2020/may/04/slow-moving-commons-debates-the-key-issues-of-march","apiUrl":"https://content.guardianapis.com/world/2020/may/04/slow-moving-commons-debates-the-key-issues-of-march","isHosted":false,"pillarId":"pillar/news","pillarName":"News"},{"id":"football/2020/mar/03/premier-league-debates-behind-closed-doors-coronavirus-contingency-plan","type":"article","sectionId":"football","sectionName":"Football","webPublicationDate":"2020-03-03T11:24:08Z","webTitle":"Premier League debates behind-closed-doors coronavirus contingency plan","webUrl":"https://www.theguardian.com/football/2020/mar/03/premier-league-debates-behind-closed-doors-coronavirus-contingency-plan","apiUrl":"https://content.guardianapis.com/football/2020/mar/03/premier-league-debates-behind-closed-doors-coronavirus-contingency-plan","isHosted":false,"pillarId":"pillar/sport","pillarName":"Sport"},{"id":"us-news/2020/feb/01/bloomberg-democratic-debates-rule-changes-funding","type":"article","sectionId":"us-news","sectionName":"US news","webPublicationDate":"2020-02-01T16:30:17Z","webTitle":"Bloomberg may make it to Democratic debates following rule changes","webUrl":"https://www.theguardian.com/us-news/2020/feb/01/bloomberg-democratic-debates-rule-changes-funding","apiUrl":"https://content.guardianapis.com/us-news/2020/feb/01/bloomberg-democratic-debates-rule-changes-funding","isHosted":false,"pillarId":"pillar/news","pillarName":"News"},{"id":"commentisfree/2020/nov/01/its-true-we-ignore-parts-of-our-history-and-not-just-about-our-colonial-past","type":"article","sectionId":"commentisfree","sectionName":"Opinion","webPublicationDate":"2020-11-01T08:00:15Z","webTitle":"It’s true, we ignore parts of our history – and not just about our colonial past | Kenan Malik","webUrl":"https://www.theguardian.com/commentisfree/2020/nov/01/its-true-we-ignore-parts-of-our-history-and-not-just-about-our-colonial-past","apiUrl":"https://content.guardianapis.com/commentisfree/2020/nov/01/its-true-we-ignore-parts-of-our-history-and-not-just-about-our-colonial-past","isHosted":false,"pillarId":"pillar/opinion","pillarName":"Opinion"},{"id":"world/2020/oct/28/hungary-and-poland-to-counter-critics-with-rule-of-law-institute","type":"article","sectionId":"world","sectionName":"World news","webPublicationDate":"2020-10-28T11:29:42Z","webTitle":"Hungary and Poland to counter critics with ‘rule of law institute’","webUrl":"https://www.theguardian.com/world/2020/oct/28/hungary-and-poland-to-counter-critics-with-rule-of-law-institute","apiUrl":"https://content.guardianapis.com/world/2020/oct/28/hungary-and-poland-to-counter-critics-with-rule-of-law-institute","isHosted":false,"pillarId":"pillar/news","pillarName":"News"},{"id":"world/2020/oct/08/thursday-briefing-a-civil-debate-now-on-with-the-show","type":"article","sectionId":"world","sectionName":"World news","webPublicationDate":"2020-10-08T05:32:42Z","webTitle":"Thursday briefing: A civil debate – now on with the show","webUrl":"https://www.theguardian.com/world/2020/oct/08/thursday-briefing-a-civil-debate-now-on-with-the-show","apiUrl":"https://content.guardianapis.com/world/2020/oct/08/thursday-briefing-a-civil-debate-now-on-with-the-show","isHosted":false,"pillarId":"pillar/news","pillarName":"News"},{"id":"artanddesign/2020/aug/28/sit-comfortably-for-this-chair-debate","type":"article","sectionId":"artanddesign","sectionName":"Art and design","webPublicationDate":"2020-08-28T15:18:20Z","webTitle":"Sit comfortably for this chair debate | Letter","webUrl":"https://www.theguardian.com/artanddesign/2020/aug/28/sit-comfortably-for-this-chair-debate","apiUrl":"https://content.guardianapis.com/artanddesign/2020/aug/28/sit-comfortably-for-this-chair-debate","isHosted":false,"pillarId":"pillar/arts","pillarName":"Arts"}]}}